Módulo 1: Manipulación de bases de datos
…
Las agrupaciones que puedo realizar son ilimitadas, así como las medidas estadísticas que quiero obtener, sin embargo, con cada agrupación que agrego se complejiza la interpretación del resumen estadístico.

Desagreguemos el dato de promedio de edad por sexo y por país

baseNueva %>% 
  group_by(idenpa, sexo) %>%    # En la agrupación ahora tengo dos variables categóricas
  summarise(promEdad = mean(edad, na.rm = T)) # Genero la medida resumen sobre la variable númerica

# A tibble: 34 × 3
# Groups:   idenpa [17]
   idenpa       sexo   promEdad
   <chr>        <fct>     <dbl>
 1 " Argentina" Mujer      43.5
 2 " Argentina" Hombre     42.1
 3 " Bolivia"   Mujer      37.7
 4 " Bolivia"   Hombre     39.3
 5 " Brasil"    Mujer      43.9
 6 " Brasil"    Hombre     43.8
 7 " Chile"     Mujer      44.7
 8 " Chile"     Hombre     44.6
 9 " Colombia"  Mujer      40.3
10 " Colombia"  Hombre     40.4
# ℹ 24 more rows
…
Ancho a largo con gather()

Devolvamos la base ancha a su presentación original con la función gather

baseLarga <- baseAncha %>% 
  gather(key = "sexo",           # En 'key' colocamos el nombre que queremos que tenga la variable contenida en las columnas
         value = "promedioEdad", # En 'value' el nombre que queremos que tenga la variable numerica o resumen
         2:3)                    # Debemos especificar las columnas que se van a transformar

baseLarga

# A tibble: 34 × 3
# Groups:   idenpa [17]
   idenpa         sexo  promedioEdad
   <chr>          <chr>        <dbl>
 1 " Argentina"   Mujer         43.5
 2 " Bolivia"     Mujer         37.7
 3 " Brasil"      Mujer         43.9
 4 " Chile"       Mujer         44.7
 5 " Colombia"    Mujer         40.3
 6 " Costa Rica"  Mujer         44.7
 7 " Ecuador"     Mujer         39.0
 8 " El Salvador" Mujer         40.8
 9 " Paraguay"    Mujer         38.8
10 " Peru"        Mujer         39.5
# ℹ 24 more rows
…
Ancho a largo con pivot_longer()

Devolvamos los datos a su formato inicial

baseLargaPaises <- baseAnchaPaises %>% 
  pivot_longer(cols = 2:ncol(baseAnchaPaises),
               names_to = "pais",
               values_to = "edadPromedio")

baseLargaPaises

# A tibble: 34 × 3
   sexo  pais           edadPromedio
   <chr> <chr>                 <dbl>
 1 Mujer " Argentina"           43.5
 2 Mujer " Bolivia"             37.7
 3 Mujer " Brasil"              43.9
 4 Mujer " Chile"               44.7
 5 Mujer " Colombia"            40.3
 6 Mujer " Costa Rica"          44.7
 7 Mujer " Ecuador"             39.0
 8 Mujer " El Salvador"         40.8
 9 Mujer " Paraguay"            38.8
10 Mujer " Peru"                39.5
# ℹ 24 more rows
…
Por practicidad voy a mostrar cómo hacerlo a partir de la base que ya tenemos cargada y lo voy a acotar a un tipo de unión de bases conocido como left join.

Para poder hacer este ejercicio primero debemos aclarar algunos conceptos, el más relevante es el de variable llave, si quiero pegar los datos de una base ‘Y’ a los datos que tengo en una base ‘X’, debo tener al menos una variable que coincida en ambas bases y que sirva como referencia para pegar los datos.

A esa variable que sirve como referencia (puede ser más de una), la llamamos variable llave.

Ya tenemos una base que tiene la edad promedio por sexo y por país (‘X’ = baseLarga), ahora voy a generar una base ‘Y’ que muestre el promedio de la edad que tenía la persona cuando termino de estudiar por sexo y por país y voy a juntar ambas bases.

baseEstudio <- baseNueva %>% 
  group_by(idenpa, sexo) %>% 
  summarise(promEstudio = mean(S10, na.rm = T))

baseEstudio

# A tibble: 34 × 3
# Groups:   idenpa [17]
   idenpa       sexo   promEstudio
   <chr>        <fct>        <dbl>
 1 " Argentina" Mujer         16.1
 2 " Argentina" Hombre        15.7
 3 " Bolivia"   Mujer         14.8
 4 " Bolivia"   Hombre        15.6
 5 " Brasil"    Mujer         15.3
 6 " Brasil"    Hombre        16.0
 7 " Chile"     Mujer         16.5
 8 " Chile"     Hombre        17.3
 9 " Colombia"  Mujer         16.8
10 " Colombia"  Hombre        17.8
# ℹ 24 more rows
…
baseEstudio <- baseEstudio %>% 
  mutate(llave = str_c(idenpa, sexo, sep = ""))

Para el pegado de bases utilizó la función ‘left_join()’ cuyos argumentos esenciales son x = base ‘X’, y = base ‘Y’ y by = variable llave.

baseJoin <- left_join(x = baseLarga,   # Base receptora de variables
                      y = baseEstudio, # Base emisora de variables
                      by = c("llave" = "llave")) # Variable a partir de la cual se relacionan ambas bases

# El resultado es una base de 7 columnas que contiene los variables iniciales de 'X'
# y las variables de 'Y' distintas a la variable llave

baseJoin

# A tibble: 34 × 7
   idenpa.x       sexo.x promedioEdad llave          idenpa.y sexo.y promEstudio
   <chr>          <chr>         <dbl> <chr>          <chr>    <fct>        <dbl>
 1 " Argentina"   Mujer          43.5 " ArgentinaMu… " Argen… Mujer         16.1
 2 " Bolivia"     Mujer          37.7 " BoliviaMuje… " Boliv… Mujer         14.8
 3 " Brasil"      Mujer          43.9 " BrasilMujer" " Brasi… Mujer         15.3
 4 " Chile"       Mujer          44.7 " ChileMujer"  " Chile" Mujer         16.5
 5 " Colombia"    Mujer          40.3 " ColombiaMuj… " Colom… Mujer         16.8
 6 " Costa Rica"  Mujer          44.7 " Costa RicaM… " Costa… Mujer         15.2
 7 " Ecuador"     Mujer          39.0 " EcuadorMuje… " Ecuad… Mujer         17.1
 8 " El Salvador" Mujer          40.8 " El Salvador… " El Sa… Mujer         13.3
 9 " Paraguay"    Mujer          38.8 " ParaguayMuj… " Parag… Mujer         15.5
10 " Peru"        Mujer          39.5 " PeruMujer"   " Peru"  Mujer         15.4
# ℹ 24 more rows

Dije anteriormente que ya existían variables a partir de las cuales se relacionaban la baseLarga y baseEstudio, hagamos el left join utilizando esas variables que son sexo y país

baseJoin2 <- left_join(x = baseLarga,
                       y = baseEstudio,
                       by = c("idenpa" = "idenpa",
                              "sexo" = "sexo",
                              "llave" = "llave"))

baseJoin2

# A tibble: 34 × 5
# Groups:   idenpa [17]
   idenpa         sexo  promedioEdad llave               promEstudio
   <chr>          <chr>        <dbl> <chr>                     <dbl>
 1 " Argentina"   Mujer         43.5 " ArgentinaMujer"          16.1
 2 " Bolivia"     Mujer         37.7 " BoliviaMujer"            14.8
 3 " Brasil"      Mujer         43.9 " BrasilMujer"             15.3
 4 " Chile"       Mujer         44.7 " ChileMujer"              16.5
 5 " Colombia"    Mujer         40.3 " ColombiaMujer"           16.8
 6 " Costa Rica"  Mujer         44.7 " Costa RicaMujer"         15.2
 7 " Ecuador"     Mujer         39.0 " EcuadorMujer"            17.1
 8 " El Salvador" Mujer         40.8 " El SalvadorMujer"        13.3
 9 " Paraguay"    Mujer         38.8 " ParaguayMujer"           15.5
10 " Peru"        Mujer         39.5 " PeruMujer"               15.4
# ℹ 24 more rows
…
